<?xml version="1.0" standalone="no"?>
<!DOCTYPE svg PUBLIC "-//W3C//DTD SVG 20010904//EN"
 "http://www.w3.org/TR/2001/REC-SVG-20010904/DTD/svg10.dtd">
<svg version="1.0" xmlns="http://www.w3.org/2000/svg"
 width="513.000000pt" height="513.000000pt" viewBox="0 0 513.000000 513.000000"
 preserveAspectRatio="xMidYMid meet">
<metadata>
Created by potrace 1.11, written by Peter Selinger 2001-2013
</metadata>
<g transform="translate(0.000000,513.000000) scale(0.100000,-0.100000)"
fill="#000000" stroke="none">
<path d="M2494 4608 c-37 -95 -77 -198 -89 -228 l-22 -55 59 -77 c32 -42 58
-78 58 -80 0 -2 -25 -3 -57 -3 l-56 0 -1 -50 -1 -50 -699 0 -700 0 -4 -35 c-2
-19 -8 -42 -13 -52 -9 -17 -12 -17 -25 -3 -19 19 -38 19 -54 0 -17 -20 -28
-11 -40 35 -13 47 -38 64 -73 51 -56 -21 -41 -119 26 -176 l40 -34 -18 -48
c-10 -26 -28 -75 -40 -108 -12 -33 -34 -91 -48 -130 -14 -38 -50 -137 -80
-220 -31 -82 -69 -188 -86 -235 -16 -47 -64 -179 -107 -295 -42 -115 -92 -253
-111 -305 -18 -52 -52 -142 -73 -200 -22 -58 -40 -111 -40 -117 0 -8 -25 -13
-67 -15 l-68 -3 3 -35 c6 -53 35 -102 95 -156 142 -130 393 -205 692 -208 180
-1 233 4 380 38 208 48 380 155 435 273 11 24 20 54 20 68 0 24 -2 25 -64 25
l-64 0 -40 113 c-56 154 -90 250 -231 637 -68 184 -165 452 -217 595 -52 143
-99 270 -104 283 -15 36 -12 53 15 74 14 11 32 33 40 49 l16 29 655 0 656 0
-3 -47 -3 -48 37 -3 37 -3 0 -1380 c0 -1306 -1 -1379 -17 -1380 -10 0 -31 -2
-48 -2 l-30 -2 0 -82 c0 -45 -3 -84 -6 -87 -3 -3 -95 -7 -205 -9 -226 -3 -254
-10 -337 -86 -64 -59 -89 -124 -97 -243 0 -5 -52 -8 -115 -8 l-115 0 -1 -42
c-1 -42 0 -176 0 -190 1 -4 485 -7 1076 -7 l1075 0 0 119 0 119 -116 3 -116 3
-2 50 c-6 103 -75 203 -174 252 -60 29 -95 32 -363 33 l-107 0 0 73 c0 115 4
107 -47 107 l-45 0 0 1380 0 1380 35 0 35 0 0 50 0 50 654 0 654 0 20 -34 c11
-18 31 -42 44 -52 l25 -18 -33 -91 c-18 -49 -153 -418 -299 -820 -147 -401
-269 -738 -272 -747 -5 -18 -45 -24 -112 -18 -23 2 -23 0 -17 -40 34 -215 402
-374 846 -365 141 3 190 9 308 36 262 60 440 187 467 332 l7 37 -69 0 -69 0
-21 63 c-11 34 -66 186 -122 337 -56 151 -104 282 -106 290 -2 8 -50 139 -106
290 -95 258 -121 330 -213 588 l-37 102 32 27 c34 29 68 94 69 131 0 31 -34
62 -62 57 -25 -5 -48 -30 -48 -53 0 -7 -5 -22 -10 -33 -10 -18 -12 -18 -35 -3
-19 12 -28 13 -45 4 -27 -15 -32 -9 -39 43 l-6 42 -700 0 -700 0 -5 50 -5 50
-52 0 c-29 -1 -53 1 -53 2 0 2 25 37 55 77 30 40 55 78 55 84 0 7 -20 63 -44
124 -25 62 -64 161 -87 221 -23 59 -43 107 -45 107 -1 0 -33 -78 -70 -172z
m-1610 -1658 l1 -770 -80 -1 c-362 -2 -490 1 -487 13 6 30 557 1536 561 1533
2 -3 4 -351 5 -775z m181 495 c53 -148 119 -328 145 -400 200 -544 312 -857
307 -861 -6 -6 -557 -11 -558 -4 -5 19 -3 1548 2 1542 3 -4 50 -128 104 -277z
m3110 -490 l0 -775 -85 -1 c-77 0 -280 0 -433 1 -32 0 -56 4 -53 9 5 8 233
631 466 1271 66 183 100 270 104 270 1 0 1 -349 1 -775z m164 543 c327 -895
478 -1313 476 -1316 -4 -5 -556 -4 -561 1 -8 8 -10 1537 -3 1537 4 0 43 -100
88 -222z"/>
</g>
</svg>
